^D:\GITLAB\REMEMBRALL_OF_WORDS\REMEMBRALL_OF_WORDS\REMEMBRALL_OF_WORDS\MAIN.CPP
D:\GITLAB\REMEMBRALL_OF_WORDS\REMEMBRALL_OF_WORDS\REMEMBRALL_OF_WORDS\RELEASE\VC140.PDB
D:\GITLAB\REMEMBRALL_OF_WORDS\REMEMBRALL_OF_WORDS\REMEMBRALL_OF_WORDS\RELEASE\MAIN.OBJ
