^D:\GITLAB\REMEMBRALL_OF_WORDS\REMEMBRALL_OF_WORDS\REMEMBRALL_OF_WORDS\RELEASE\MAIN.OBJ
C:\WINDOWS\GLOBALIZATION\SORTING\SORTDEFAULT.NLS
C:\PROGRAM FILES (X86)\WINDOWS KITS\8.1\LIB\WINV6.3\UM\X86\KERNEL32.LIB
C:\PROGRAM FILES (X86)\WINDOWS KITS\8.1\LIB\WINV6.3\UM\X86\USER32.LIB
C:\PROGRAM FILES (X86)\WINDOWS KITS\8.1\LIB\WINV6.3\UM\X86\GDI32.LIB
C:\PROGRAM FILES (X86)\WINDOWS KITS\8.1\LIB\WINV6.3\UM\X86\WINSPOOL.LIB
C:\PROGRAM FILES (X86)\WINDOWS KITS\8.1\LIB\WINV6.3\UM\X86\COMDLG32.LIB
C:\PROGRAM FILES (X86)\WINDOWS KITS\8.1\LIB\WINV6.3\UM\X86\ADVAPI32.LIB
C:\PROGRAM FILES (X86)\WINDOWS KITS\8.1\LIB\WINV6.3\UM\X86\SHELL32.LIB
C:\PROGRAM FILES (X86)\WINDOWS KITS\8.1\LIB\WINV6.3\UM\X86\OLE32.LIB
C:\PROGRAM FILES (X86)\WINDOWS KITS\8.1\LIB\WINV6.3\UM\X86\OLEAUT32.LIB
C:\PROGRAM FILES (X86)\WINDOWS KITS\8.1\LIB\WINV6.3\UM\X86\UUID.LIB
C:\PROGRAM FILES (X86)\WINDOWS KITS\8.1\LIB\WINV6.3\UM\X86\ODBC32.LIB
C:\PROGRAM FILES (X86)\WINDOWS KITS\8.1\LIB\WINV6.3\UM\X86\ODBCCP32.LIB
D:\GITLAB\REMEMBRALL_OF_WORDS\REMEMBRALL_OF_WORDS\REMEMBRALL_OF_WORDS\RELEASE\MAIN.OBJ
I:\VISUAL STUDIO COMMUNITY 2015\VC\BIN\C2.DLL
I:\VISUAL STUDIO COMMUNITY 2015\VC\LIB\MSVCPRT.LIB
I:\VISUAL STUDIO COMMUNITY 2015\C++ BOOST\BOOST_1_65_0\STAGE\LIB\LIBBOOST_FILESYSTEM-VC140-MT-1_65.LIB
I:\VISUAL STUDIO COMMUNITY 2015\C++ BOOST\BOOST_1_65_0\STAGE\LIB\LIBBOOST_SYSTEM-VC140-MT-1_65.LIB
I:\VISUAL STUDIO COMMUNITY 2015\VC\LIB\MSVCRT.LIB
I:\VISUAL STUDIO COMMUNITY 2015\VC\LIB\OLDNAMES.LIB
I:\VISUAL STUDIO COMMUNITY 2015\VC\LIB\VCRUNTIME.LIB
C:\PROGRAM FILES (X86)\WINDOWS KITS\10\LIB\10.0.10240.0\UCRT\X86\UCRT.LIB
I:\VISUAL STUDIO COMMUNITY 2015\VC\BIN\1033\LINKUI.DLL
D:\GITLAB\REMEMBRALL_OF_WORDS\REMEMBRALL_OF_WORDS\RELEASE\REMEMBRALL_OF_WORDS.IPDB
D:\GITLAB\REMEMBRALL_OF_WORDS\REMEMBRALL_OF_WORDS\RELEASE\REMEMBRALL_OF_WORDS.IOBJ
C:\PROGRAM FILES (X86)\WINDOWS KITS\8.1\BIN\X86\RC.EXE
I:\VISUAL STUDIO COMMUNITY 2015\VC\BIN\CVTRES.EXE
C:\WINDOWS\SYSTEM32\TZRES.DLL
C:\WINDOWS\SYSTEM32\RSAENH.DLL
